<?xml version="1.0" encoding="utf-8"?>
<!-- Generator: Adobe Illustrator 21.1.0, SVG Export Plug-In . SVG Version: 6.00 Build 0)  -->
<svg version="1.1" baseProfile="tiny" id="圖層_1"
	 xmlns="http://www.w3.org/2000/svg" xmlns:xlink="http://www.w3.org/1999/xlink" x="0px" y="0px" viewBox="0 0 80.2 14.5"
	 xml:space="preserve">
<title>fb</title>
<g>
	<polygon fill="#FFFFFF" points="0,1.2 8.6,1.2 8.6,3.4 2.5,3.4 2.5,6.8 7.5,6.8 7.5,9 2.5,9 2.5,14.2 0,14.2 	"/>
	<path fill="#FFFFFF" d="M14.6,13.1C14,14,13,14.5,11.9,14.5c-1.5,0.1-2.9-1-3-2.6c0,0,0-0.1,0-0.1c0-1.8,1.3-3.3,5.7-3.4V8.2
		c0-1.3-0.5-1.8-1.9-1.8c-1.1,0.1-2.2,0.4-3.2,1L9,5.4c1.2-0.7,2.6-1.1,4-1.1c2.9,0,4.1,1.3,4,3.9v3.4c0,0.7,0.1,0.8,0.9,0.9
		l-0.2,1.8C15.9,14.6,15,14,14.6,13.1L14.6,13.1z M14.6,9.7c-2.4,0.3-3.3,0.8-3.3,1.8c0,0.7,0.6,1.3,1.3,1.3c0,0,0.1,0,0.1,0
		c0.7,0,1.4-0.3,1.8-0.8L14.6,9.7z"/>
	<path fill="#FFFFFF" d="M23.6,14.5c-3.1,0-5-1.9-5-5.1c-0.2-2.6,1.8-4.9,4.4-5.1c0.2,0,0.4,0,0.6,0c1.2,0,2.3,0.2,3.3,0.8l-0.5,2
		c-0.8-0.5-1.7-0.8-2.6-0.8c-1.8,0-2.7,1.2-2.7,3c0,2,1.1,3.1,2.7,3.1c0.9,0,1.9-0.2,2.7-0.7l0.4,2C25.9,14.3,24.8,14.5,23.6,14.5"
		/>
	<path fill="#FFFFFF" d="M30.2,9.9c0,1.5,1.2,2.6,2.7,2.6c0,0,0.1,0,0.1,0c1.1,0,2.1-0.3,3-0.9l0.3,2c-1.1,0.5-2.3,0.8-3.5,0.8
		c-2.6,0.2-4.9-1.8-5.1-4.4c0-0.2,0-0.4,0-0.6c-0.2-2.7,1.8-5,4.5-5.2c0.2,0,0.3,0,0.5,0c2-0.2,3.7,1.2,3.9,3.2c0,0.2,0,0.4,0,0.7
		c0,0.5-0.1,1.1-0.2,1.6L30.2,9.9L30.2,9.9z M34.4,8.4V8.3c0-1.3-0.6-2.1-1.8-2.1c-1.2,0-2.2,1-2.3,2.3L34.4,8.4z"/>
	<path fill="#FFFFFF" d="M42.9,14.5c-0.7,0-1.4-0.1-2.1-0.3l-2.3,0.4V0.3L40.9,0v5.5c0.7-0.7,1.7-1.2,2.7-1.2c2.5,0,4.2,2.1,4.2,5
		c0.2,2.7-1.9,5-4.5,5.2C43.1,14.5,43,14.5,42.9,14.5 M42.9,6.4c-0.7,0-1.4,0.3-2,0.8V12c0.5,0.4,1.2,0.6,1.8,0.5
		c1.6,0,2.6-1.3,2.6-3.1C45.3,7.6,44.4,6.4,42.9,6.4"/>
	<path fill="#FFFFFF" d="M53.7,14.5c-2.8,0-4.8-1.9-4.8-5.1c-0.2-2.6,1.8-4.9,4.5-5.1c0.2,0,0.3,0,0.5,0c2.8,0,4.8,2,4.8,5.1
		c0.2,2.7-1.9,4.9-4.5,5.1C54,14.5,53.9,14.5,53.7,14.5 M53.8,6.3c-1.6,0-2.5,1.3-2.5,3.1c0,1.8,0.9,3.1,2.5,3.1
		c1.6,0,2.4-1.2,2.4-3.1S55.4,6.3,53.8,6.3"/>
	<path fill="#FFFFFF" d="M64.7,14.5c-2.8,0-4.8-1.9-4.8-5.1c-0.2-2.6,1.8-4.9,4.5-5.1c0.2,0,0.3,0,0.5,0c2.8,0,4.8,2,4.8,5.1
		c0.2,2.7-1.9,4.9-4.5,5.1C65,14.5,64.9,14.5,64.7,14.5 M64.8,6.3c-1.6,0-2.5,1.3-2.5,3.1c0,1.8,0.9,3.1,2.5,3.1
		c1.6,0,2.4-1.2,2.4-3.1S66.3,6.3,64.8,6.3"/>
	<polygon fill="#FFFFFF" points="73.8,9.6 73.8,14.2 71.4,14.2 71.4,0.3 73.8,0 73.8,8.9 73.9,8.9 77.3,4.6 80.2,4.6 76.2,9.2 
		80.2,14.2 77.3,14.2 73.9,9.6 	"/>
</g>
</svg>
